{
    "name": "MainAction",
    "maps": [
        {
            "name": "Basic",
            "id": "a32f97df-71e3-4373-bfaf-1462945894d7",
            "actions": [
                {
                    "name": "Jump",
                    "type": "Button",
                    "id": "1b597a9f-1d4c-4d87-a46e-3293e4acb077",
                    "expectedControlType": "Button",
                    "processors": "",
                    "interactions": "",
                    "initialStateCheck": false
                },
                {
                    "name": "Movemet",
                    "type": "Value",
                    "id": "e3d20a1a-1ff6-4ba5-a21f-9ef96b3c3339",
                    "expectedControlType": "Vector2",
                    "processors": "",
                    "interactions": "",
                    "initialStateCheck": true
                }
            ],
            "bindings": [
                {
                    "name": "",
                    "id": "4a44f02c-15b3-494d-84b7-c38a5acb343c",
                    "path": "<Keyboard>/space",
                    "interactions": "",
                    "processors": "",
                    "groups": "",
                    "action": "Jump",
                    "isComposite": false,
                    "isPartOfComposite": false
                },
                {
                    "name": "2D Vector",
                    "id": "113524c9-cf3d-4432-b55d-b6154a7700c4",
                    "path": "2DVector",
                    "interactions": "",
                    "processors": "",
                    "groups": "",
                    "action": "Movemet",
                    "isComposite": true,
                    "isPartOfComposite": false
                },
                {
                    "name": "left",
                    "id": "6e4ff906-0673-4aad-aefa-281ae17b4276",
                    "path": "<Keyboard>/a",
                    "interactions": "",
                    "processors": "",
                    "groups": "",
                    "action": "Movemet",
                    "isComposite": false,
                    "isPartOfComposite": true
                },
                {
                    "name": "right",
                    "id": "5f6baaad-2d6e-492a-98fe-dee8636ae7f7",
                    "path": "<Keyboard>/d",
                    "interactions": "",
                    "processors": "",
                    "groups": "",
                    "action": "Movemet",
                    "isComposite": false,
                    "isPartOfComposite": true
                }
            ]
        }
    ],
    "controlSchemes": []
}